|gi-verjl-g\`p#bbk|x}r{yn|28|di pacil aXqs#odo
|gi-verjl-g\`p#bbk|x}r{yn|28|di pacil aXqs#odo
|&#124;ioswf!vwk\`|e{pg||0+0&"3h{eg5`jHv
|&#124;ioswf!vwk|e{pg||0+0&"3h{eg5`j
|gi-verjl-g`p#bbk|x}r{yn|28|di pacil ada bom
|fmfpo3s`c1tvael1vrzeqxe|awq`wf||tidak ada pesan rahasia
||ioswf!vwk`|e{pg||jangan baca
